{
  "success": true,
  "result": [
    {
      "id": 31774,
      "old_id": null,
      "createdBy": "admin",
      "lastChangedBy": null,
      "deleted_at": null,
      "deletedBy": null,
      "createdAt": "2022-10-18T00:01:12.196Z",
      "updated_at": "2022-10-18T00:01:12.196Z",
      "date": "2022-10-17T18:21:16.000Z",
      "ip": "192.168.1.209",
      "user": { "id": 199, "first_name": "TAKON", "last_name": "EKUDE", "other_names": null, "department": null }
    },
    {
      "id": 31775,
      "old_id": null,
      "createdBy": "admin",
      "lastChangedBy": null,
      "deleted_at": null,
      "deletedBy": null,
      "createdAt": "2022-10-18T00:01:12.196Z",
      "updated_at": "2022-10-18T00:01:12.196Z",
      "date": "2022-10-17T18:19:37.000Z",
      "ip": "192.168.1.209",
      "user": { "id": 125, "first_name": "GIDEON", "last_name": "GRACE", "other_names": "LONGTONG", "department": null }
    },
    {
      "id": 31776,
      "old_id": null,
      "createdBy": "admin",
      "lastChangedBy": null,
      "deleted_at": null,
      "deletedBy": null,
      "createdAt": "2022-10-18T00:01:12.196Z",
      "updated_at": "2022-10-18T00:01:12.196Z",
      "date": "2022-10-17T18:17:18.000Z",
      "ip": "192.168.1.209",
      "user": { "id": 127, "first_name": "INEJI", "last_name": "ESTHER", "other_names": "OCHUOLE", "department": null }
    },
    {
      "id": 31777,
      "old_id": null,
      "createdBy": "admin",
      "lastChangedBy": null,
      "deleted_at": null,
      "deletedBy": null,
      "createdAt": "2022-10-18T00:01:12.196Z",
      "updated_at": "2022-10-18T00:01:12.196Z",
      "date": "2022-10-17T18:17:03.000Z",
      "ip": "192.168.1.209",
      "user": { "id": 118, "first_name": "AZORJI", "last_name": "OZIOMA", "other_names": null, "department": null }
    },
    {
      "id": 31778,
      "old_id": null,
      "createdBy": "admin",
      "lastChangedBy": null,
      "deleted_at": null,
      "deletedBy": null,
      "createdAt": "2022-10-18T00:01:12.196Z",
      "updated_at": "2022-10-18T00:01:12.196Z",
      "date": "2022-10-17T18:15:40.000Z",
      "ip": "192.168.1.209",
      "user": { "id": 117, "first_name": "AYOGU", "last_name": "ANTHONIA", "other_names": null, "department": null }
    },
    {
      "id": 31779,
      "old_id": null,
      "createdBy": "admin",
      "lastChangedBy": null,
      "deleted_at": null,
      "deletedBy": null,
      "createdAt": "2022-10-18T00:01:12.196Z",
      "updated_at": "2022-10-18T00:01:12.196Z",
      "date": "2022-10-17T18:15:23.000Z",
      "ip": "192.168.1.209",
      "user": { "id": 124, "first_name": "FRANCIS", "last_name": "TOVIA", "other_names": null, "department": null }
    },
    {
      "id": 31780,
      "old_id": null,
      "createdBy": "admin",
      "lastChangedBy": null,
      "deleted_at": null,
      "deletedBy": null,
      "createdAt": "2022-10-18T00:01:12.196Z",
      "updated_at": "2022-10-18T00:01:12.196Z",
      "date": "2022-10-17T18:15:19.000Z",
      "ip": "192.168.1.209",
      "user": { "id": 175, "first_name": "AGGREY", "last_name": "JENNIFER", "other_names": null, "department": null }
    },
    {
      "id": 31781,
      "old_id": null,
      "createdBy": "admin",
      "lastChangedBy": null,
      "deleted_at": null,
      "deletedBy": null,
      "createdAt": "2022-10-18T00:01:12.196Z",
      "updated_at": "2022-10-18T00:01:12.196Z",
      "date": "2022-10-17T18:13:52.000Z",
      "ip": "192.168.1.209",
      "user": { "id": 131, "first_name": "NWAGBOSO", "last_name": "CHIOMA", "other_names": null, "department": null }
    },
    {
      "id": 31782,
      "old_id": null,
      "createdBy": "admin",
      "lastChangedBy": null,
      "deleted_at": null,
      "deletedBy": null,
      "createdAt": "2022-10-18T00:01:12.196Z",
      "updated_at": "2022-10-18T00:01:12.196Z",
      "date": "2022-10-17T18:13:41.000Z",
      "ip": "192.168.1.209",
      "user": { "id": 111, "first_name": "ADEBISI", "last_name": "OMOWUMI", "other_names": null, "department": null }
    },
    {
      "id": 31783,
      "old_id": null,
      "createdBy": "admin",
      "lastChangedBy": null,
      "deleted_at": null,
      "deletedBy": null,
      "createdAt": "2022-10-18T00:01:12.196Z",
      "updated_at": "2022-10-18T00:01:12.196Z",
      "date": "2022-10-17T18:13:17.000Z",
      "ip": "192.168.1.209",
      "user": null
    }
  ],
  "lastPage": 3601,
  "itemsPerPage": "10",
  "totalItems": 36001,
  "currentPage": 2
}
